0011_vhdl11_ula/simulation/qsim/ula.msim.vcd
$comment
	File created using the following command:
		vcd file ula.msim.vcd -direction
$end
$date
	Mon Jun 17 08:31:11 2019
$end
$version
	ModelSim Version 10.5b
$end
$timescale
	1ps
$end

$scope module ula_vlg_vec_tst $end
$var reg 8 ! Ai [7:0] $end
$var reg 8 " Bi [7:0] $end
$var reg 1 # M $end
$var reg 1 $ S0 $end
$var reg 1 % S1 $end
$var wire 1 & Fi [7] $end
$var wire 1 ' Fi [6] $end
$var wire 1 ( Fi [5] $end
$var wire 1 ) Fi [4] $end
$var wire 1 * Fi [3] $end
$var wire 1 + Fi [2] $end
$var wire 1 , Fi [1] $end
$var wire 1 - Fi [0] $end

$scope module i1 $end
$var wire 1 . gnd $end
$var wire 1 / vcc $end
$var wire 1 0 unknown $end
$var tri1 1 1 devclrn $end
$var tri1 1 2 devpor $end
$var tri1 1 3 devoe $end
$var wire 1 4 Fi[0]~output_o $end
$var wire 1 5 Fi[1]~output_o $end
$var wire 1 6 Fi[2]~output_o $end
$var wire 1 7 Fi[3]~output_o $end
$var wire 1 8 Fi[4]~output_o $end
$var wire 1 9 Fi[5]~output_o $end
$var wire 1 : Fi[6]~output_o $end
$var wire 1 ; Fi[7]~output_o $end
$var wire 1 < S1~input_o $end
$var wire 1 = Bi[0]~input_o $end
$var wire 1 > S0~input_o $end
$var wire 1 ? Add0~0_combout $end
$var wire 1 @ Ai[0]~input_o $end
$var wire 1 A Add0~2_cout $end
$var wire 1 B Add0~3_combout $end
$var wire 1 C Fi~0_combout $end
$var wire 1 D M~input_o $end
$var wire 1 E Add0~5_combout $end
$var wire 1 F Bi[1]~input_o $end
$var wire 1 G Add0~6_combout $end
$var wire 1 H Ai[1]~input_o $end
$var wire 1 I Add0~4 $end
$var wire 1 J Add0~7_combout $end
$var wire 1 K Fi~1_combout $end
$var wire 1 L Add0~9_combout $end
$var wire 1 M Bi[2]~input_o $end
$var wire 1 N Add0~10_combout $end
$var wire 1 O Ai[2]~input_o $end
$var wire 1 P Add0~8 $end
$var wire 1 Q Add0~11_combout $end
$var wire 1 R Fi~2_combout $end
$var wire 1 S Add0~13_combout $end
$var wire 1 T Bi[3]~input_o $end
$var wire 1 U Add0~14_combout $end
$var wire 1 V Ai[3]~input_o $end
$var wire 1 W Add0~12 $end
$var wire 1 X Add0~15_combout $end
$var wire 1 Y Fi~3_combout $end
$var wire 1 Z Add0~17_combout $end
$var wire 1 [ Bi[4]~input_o $end
$var wire 1 \ Add0~18_combout $end
$var wire 1 ] Ai[4]~input_o $end
$var wire 1 ^ Add0~16 $end
$var wire 1 _ Add0~19_combout $end
$var wire 1 ` Fi~4_combout $end
$var wire 1 a Add0~21_combout $end
$var wire 1 b Bi[5]~input_o $end
$var wire 1 c Add0~22_combout $end
$var wire 1 d Ai[5]~input_o $end
$var wire 1 e Add0~20 $end
$var wire 1 f Add0~23_combout $end
$var wire 1 g Fi~5_combout $end
$var wire 1 h Add0~25_combout $end
$var wire 1 i Bi[6]~input_o $end
$var wire 1 j Add0~26_combout $end
$var wire 1 k Ai[6]~input_o $end
$var wire 1 l Add0~24 $end
$var wire 1 m Add0~27_combout $end
$var wire 1 n Fi~6_combout $end
$var wire 1 o Add0~29_combout $end
$var wire 1 p Bi[7]~input_o $end
$var wire 1 q Add0~30_combout $end
$var wire 1 r Ai[7]~input_o $end
$var wire 1 s Add0~28 $end
$var wire 1 t Add0~31_combout $end
$var wire 1 u Fi~7_combout $end
$var wire 1 v Add0~33_combout $end
$upscope $end
$upscope $end
$enddefinitions $end
#0
$dumpvars
b1001010 !
b11 "
0#
0$
0%
0-
1,
0+
0*
0)
0(
0'
0&
0.
1/
x0
11
12
13
04
15
06
07
08
09
0:
0;
0<
1=
0>
1?
0@
0A
1B
0C
0D
0E
1F
1G
1H
1I
0J
1K
1L
0M
0N
0O
1P
1Q
0R
0S
0T
0U
1V
1W
1X
0Y
0Z
0[
0\
0]
0^
0_
0`
0a
0b
0c
0d
1e
0f
0g
0h
0i
0j
1k
0l
1m
0n
0o
0p
0q
0r
1s
0t
0u
0v
$end
#6250
1$
1>
1q
1n
1j
1c
1\
1Y
1U
1N
0G
1C
1A
0?
1t
0s
0m
1f
1_
1^
0X
0W
0Q
0P
1J
1o
1Z
1E
14
17
1:
0t
0e
0_
1X
1W
1Q
1'
1*
1-
1l
0f
0X
1m
#12500
1%
0$
1<
0>
0q
0j
0c
0\
0U
0N
0K
0A
1?
1t
0m
0l
1f
1e
1_
0^
1X
0Q
0L
05
1s
1m
0f
0_
0,
0t
#18750
1$
1>
1u
1q
0n
1j
1g
1c
1`
1\
0Y
1U
1R
1N
1G
1t
0s
0m
1f
1_
1^
0X
1Q
1P
0J
1v
0o
1h
1a
0Z
1S
16
07
18
19
0:
1;
0t
0e
0_
0W
0Q
1&
0'
1(
1)
0*
1+
1l
0f
1X
1m
#25000
1#
0%
0$
1D
0<
0>
0u
0q
0j
0g
0c
0`
0\
0U
0R
0N
1K
0C
0v
1o
0h
0a
1Z
0S
06
17
08
09
1:
0;
1t
0m
0l
1f
1e
1_
0X
1W
1Q
0&
1'
0(
0)
1*
0+
1s
1m
0f
0^
1X
1v
0o
1h
1a
0Z
1S
16
07
18
19
0:
1;
0t
0_
1&
0'
1(
1)
0*
1+
1o
0h
1Z
17
09
1:
1'
0(
1*
0v
0a
08
0;
0&
0)
#31250
1$
1>
1q
1n
1j
1c
1\
1Y
1U
1N
0G
1C
1A
0?
1t
0s
0m
1f
1_
1^
0X
0W
0Q
0P
1J
0t
0e
0_
1X
1W
1Q
1v
0o
1h
1a
0Z
0S
1L
15
06
07
18
19
0:
1;
1l
0f
0X
1&
0'
1(
1)
0*
0+
1,
0v
0a
1Z
1S
16
17
08
0;
1m
0&
0)
1*
1+
0h
0Z
07
09
0(
0*
1o
1:
1'
#37500
1%
0$
1<
0>
0q
0j
0c
0\
0U
0N
0K
0A
1?
1t
0m
0l
1f
1e
1_
0^
1X
0Q
1s
1m
0f
0_
1v
0o
1h
1a
1Z
0S
06
17
18
19
0:
1;
0t
1&
0'
1(
1)
1*
0+
1o
0h
0a
08
09
1:
1'
0(
0)
0v
0;
0&
#43750
1$
1>
1u
1q
0n
1j
1g
1c
1`
1\
0Y
1U
1R
1N
1G
1t
0s
0m
1f
1_
1^
0X
1Q
1P
0J
0t
0e
0_
0W
0Q
1v
0o
1h
1a
0Z
1S
0L
05
16
07
18
19
0:
1;
1l
0f
1X
1&
0'
1(
1)
0*
1+
0,
0v
0a
0S
06
08
0;
1m
0&
0)
0+
0h
1Z
17
09
0(
1*
1o
1:
1'
#50000
b11001010 !
b10001010 !
b10101010 !
b10100010 !
b10100011 !
b1000011 "
b1010011 "
0#
0%
0$
1[
1i
1@
0V
1d
0k
1r
0D
0<
0>
0`
0I
0B
0X
0g
1f
0m
0u
1t
0q
0c
0U
0R
0N
1K
1v
0o
1h
1a
0Z
1S
16
07
18
19
0:
1;
1J
0t
0f
0^
1X
1W
1Q
1&
0'
1(
1)
0*
1+
0a
0h
0v
0S
1L
15
06
0;
09
08
1e
1_
0X
0)
0(
0&
0+
1,
0l
1f
1s
1m
1t
#56250
1$
1>
1u
1q
1n
0j
1g
1c
1`
0\
1U
1N
0G
1A
0?
0t
0m
1l
0f
0_
1X
0W
0Q
0J
1v
1o
1h
1a
18
19
1:
1;
1m
1^
0X
1&
1'
1(
1)
1_
#62500
1%
0$
1<
0>
0q
0c
0U
0N
0K
0C
0A
1?
1t
0l
1f
0^
1X
1W
1Q
0L
0E
04
05
0m
0_
0X
0,
0-
#68750
1$
1>
0u
1q
1j
0g
1c
1\
1Y
1U
1R
1N
1G
0t
1m
1l
0f
1_
1X
0W
0Q
1J
0v
0h
1Z
1S
16
17
09
0;
0s
0m
1^
0X
0&
0(
1*
1+
1t
0e
0_
1f
#75000
1#
0%
0$
1D
0<
0>
0q
0n
0c
0`
0Y
0U
0R
0N
1K
1C
1v
0o
1h
0a
0Z
0S
1L
15
06
07
08
19
0:
1;
0t
0f
0^
1X
1W
1Q
1&
0'
1(
0)
0*
0+
1,
1e
1_
0X
0v
0h
1Z
1S
16
17
09
0;
0l
1f
0&
0(
1*
1+
1a
0Z
07
18
1s
1m
1)
0*
1h
19
1t
1(
1o
1:
1'
1v
1;
1&
#81250
1$
1>
1u
1q
1n
0j
1g
1c
1`
0\
1U
1N
0G
1A
0?
0t
0m
1l
0f
0_
1X
0W
0Q
0J
1m
1^
0X
0v
0o
0h
0a
1Z
0S
0L
05
06
17
08
09
0:
0;
1_
0&
0'
0(
0)
1*
0+
0,
1o
0Z
07
1:
1'
0*
1a
18
1)
#87500
1%
0$
1<
0>
0q
0c
0U
0N
0K
0C
0A
1?
1t
0l
1f
0^
1X
1W
1Q
0m
0_
0X
1v
1h
1Z
1S
16
17
19
1;
1&
1(
1*
1+
0o
0a
0Z
07
08
0:
0'
0)
0*
#93750
1$
1>
0u
1q
1j
0g
1c
1\
1Y
1U
1R
1N
1G
0t
1m
1l
0f
1_
1X
0W
0Q
1J
0s
0m
1^
0X
0v
1o
0h
1a
1Z
0S
1L
15
06
17
18
09
1:
0;
1t
0e
0_
0&
1'
0(
1)
1*
0+
1,
0o
0Z
07
0:
1f
0'
0*
1v
0a
08
1;
1&
0)
1h
19
1(
#100000
b10100111 !
b11010011 "
b11011011 "
b11011010 "
b100111 !
b101111 !
b10011010 "
b10001010 "
0#
0%
0$
0=
1T
0[
0i
1p
1O
1V
0r
0D
0<
0>
0?
0`
0\
0n
0j
0R
1Q
1X
0t
0c
0N
1K
0v
1o
0h
1a
1Z
1S
0L
05
16
17
18
09
1:
0;
1I
1B
1e
1_
1s
1m
0f
0Q
0&
1'
0(
1)
1*
1+
0,
0a
0o
0S
1L
15
06
0:
08
0J
0l
1f
1t
0)
0'
0+
1,
0m
#106250
1$
1>
1u
0q
1j
1g
1c
1\
0U
1R
1N
0G
1C
1A
1?
0t
1m
1l
0f
0e
0_
0X
1Q
0P
1J
0I
1v
1h
1S
1E
14
16
19
1;
0s
0m
1f
0Q
1P
0J
1&
1(
1+
1-
1t
1Q
#112500
1%
0$
1<
0>
0j
0c
0\
0Y
0N
0K
0A
1s
1m
0f
1e
1_
0Q
0B
0Z
0L
05
07
0t
0l
1f
0*
0,
0m
#118750
1$
1>
1q
1n
1j
0g
1c
1`
1\
1U
0R
1N
1G
0C
1t
1m
1l
0f
0e
0_
1X
1Q
1J
1o
0h
1a
0S
0E
04
06
18
09
1:
0s
0m
1f
1'
0(
1)
0+
0-
0t
#125000
1#
0%
0$
1D
0<
0>
0u
0n
0j
0c
0`
0\
1Y
0N
1K
0?
0v
0o
1h
0a
1Z
1S
1L
15
16
17
08
19
0:
0;
1s
1m
0f
1e
1_
0Q
1I
1B
0&
0'
1(
0)
1*
1+
1,
1t
0l
1f
0J
1o
0h
1a
0S
1E
14
06
18
09
1:
0m
1'
0(
1)
0+
1-
1v
1h
0L
05
19
1;
1&
1(
0,
0o
0:
0'
#131250
1$
1>
1u
0q
1j
1g
1c
1\
0U
1R
1N
0G
1C
1A
1?
0t
1m
1l
0f
0e
0_
0X
1Q
0P
1J
0I
0s
0m
1f
0Q
1P
0J
0v
1o
0h
0a
0Z
1S
1L
15
16
07
08
09
1:
0;
1t
1Q
0&
1'
0(
0)
0*
1+
1,
0o
1h
0S
0L
05
06
19
0:
0'
1(
0+
0,
1v
1S
16
1;
1&
1+
#137500
1%
0$
1<
0>
0j
0c
0\
0Y
0N
0K
0A
1s
1m
0f
1e
1_
0Q
0B
0t
0l
1f
1o
0h
1a
0S
0E
04
06
18
09
1:
0m
1'
0(
1)
0+
0-
0v
1h
19
0;
0&
1(
0o
0:
0'
#143750
1$
1>
1q
1n
1j
0g
1c
1`
1\
1U
0R
1N
1G
0C
1t
1m
1l
0f
0e
0_
1X
1Q
1J
0s
0m
1f
1v
1o
0h
0a
1Z
1S
1L
15
16
17
08
09
1:
1;
0t
1&
1'
0(
0)
1*
1+
1,
0o
1h
19
0:
0'
1(
0v
0;
0&
#150000
b111111 !
b111101 !
b1111101 !
b1111001 !
b10000010 "
b11111001 !
b10010010 "
0#
0%
0$
0T
1[
0H
0O
1]
1k
1r
0D
0<
0>
0U
0J
0Q
1_
0n
1m
1t
0j
0c
0N
0?
1v
1o
0h
1a
0Z
0S
0L
05
06
07
18
09
1:
1;
0X
0m
0f
1W
1Q
1I
1B
1&
1'
0(
1)
0*
0+
0,
0o
0:
0^
1X
0P
1J
0'
0_
0Q
#156250
1$
1>
0q
1n
1j
1g
1c
0\
1Y
1U
1N
1K
0G
1C
1A
1?
0t
1m
1f
1e
1_
1^
0X
1Q
0J
0I
1o
1h
1Z
1L
1E
14
15
17
19
1:
0f
0e
0_
1J
1'
1(
1*
1,
1-
1f
#162500
1%
0$
1<
0>
0u
0j
0c
0`
0U
0N
0A
0m
0f
0^
1X
0Q
0B
0v
0a
08
0;
1e
1_
0&
0)
0l
1f
1s
1m
1t
#168750
1$
1>
1q
0n
1j
0g
1c
1\
0Y
1U
1R
1N
1G
0C
0t
0s
0m
1l
0f
0e
0_
1^
0X
1Q
1P
0J
0o
0h
0Z
1S
0E
04
16
07
09
0:
1t
1m
1f
1_
0W
0Q
0'
0(
0*
1+
0-
1X
#175000
1#
0%
0$
1D
0<
0>
1u
0j
0c
1`
0U
0R
0N
0K
0?
1v
1o
1h
1a
1Z
0S
0L
05
06
17
18
19
1:
1;
0m
0f
0X
1W
1Q
1I
1B
1&
1'
1(
1)
1*
0+
0,
0^
1X
0P
1J
0o
0h
0Z
1S
1E
14
16
07
09
0:
0_
0Q
0'
0(
0*
1+
1-
1Z
1L
15
17
1*
1,
0a
0S
06
08
0)
0+
#181250
1$
1>
0q
1n
1j
1g
1c
0\
1Y
1U
1N
1K
0G
1C
1A
1?
0t
1m
1f
1e
1_
1^
0X
1Q
0J
0I
0f
0e
0_
1J
0v
1o
1h
1a
0Z
1S
0L
05
16
07
18
19
1:
0;
1f
0&
1'
1(
1)
0*
1+
0,
0h
0a
1L
15
08
09
0(
0)
1,
1h
19
1(
#187500
1%
0$
1<
0>
0u
0j
0c
0`
0U
0N
0A
0m
0f
0^
1X
0Q
0B
1e
1_
0o
0h
1Z
0S
0E
04
06
17
09
0:
0l
1f
0'
0(
1*
0+
0-
1a
18
1s
1m
1)
1h
19
1t
1(
1o
1:
1'
1v
1;
1&
#193750
1$
1>
1q
0n
1j
0g
1c
1\
0Y
1U
1R
1N
1G
0C
0t
0s
0m
1l
0f
0e
0_
1^
0X
1Q
1P
0J
1t
1m
1f
1_
0W
0Q
0v
0o
0h
0a
0Z
1S
0L
05
16
07
08
09
0:
0;
1X
0&
0'
0(
0)
0*
1+
0,
1v
1o
1h
1a
0S
06
18
19
1:
1;
1&
1'
1(
1)
0+
1Z
17
1*
#200000
b10110010 "
b10110110 "
b11011001 !
b110110 "
b110111 "
b11010001 !
b11000001 !
b11000011 !
b10000011 !
b10000111 !
b111111 "
b111 !
0#
0%
0$
1H
1O
0V
0]
0d
0k
0r
1=
1M
1T
1b
0p
0D
0<
0>
1J
1Q
0X
0_
0f
0m
0t
1C
0q
0j
0v
0o
0h
0a
0Z
1S
1L
15
16
07
08
09
0:
0;
1t
1s
1m
0&
0'
0(
0)
0*
1+
1,
1E
14
0t
1-
#206250
1$
1>
1q
1j
1g
0c
1`
0\
1Y
0U
0N
0G
1A
0?
1t
0s
0m
0l
1f
1e
1_
0^
1X
0Q
0J
1h
1a
1Z
17
18
19
0t
1s
1m
0f
0_
1(
1)
1*
1t
#212500
1%
0$
1<
0>
0q
0j
0R
0K
0C
0A
1?
0t
0m
0S
0L
0E
04
05
06
0+
0,
0-
#218750
1$
1>
1u
1q
1n
1j
1c
1\
1U
1N
1G
1t
1m
1f
1_
1^
0X
1Q
1J
1v
1o
1:
1;
0e
0_
1&
1'
1l
0f
0s
0m
0t
#225000
1#
0%
0$
1D
0<
0>
0u
0q
0n
0j
0g
0`
0Y
1R
1K
1C
0v
0o
0h
0a
0Z
1S
1L
15
16
07
08
09
0:
0;
1t
1s
1m
0&
0'
0(
0)
0*
1+
1,
0t
1v
1o
1:
1;
1&
1'
0v
0;
0&
#231250
1$
1>
1q
1j
1g
0c
1`
0\
1Y
0U
0N
0G
1A
0?
1t
0s
0m
0l
1f
1e
1_
0^
1X
0Q
0J
0t
1s
1m
0f
0_
1v
0o
1h
1a
1Z
0S
0L
05
06
17
18
19
0:
1;
1t
1&
0'
1(
1)
1*
0+
0,
0v
1o
0h
0a
08
09
1:
0;
0&
1'
0(
0)
1v
1;
1&
#237500
1%
0$
1<
0>
0q
0j
0R
0K
0C
0A
1?
0t
0m
0v
0o
0:
0;
0&
0'
#243750
1$
1>
1u
1q
1n
1j
1c
1\
1U
1N
1G
1t
1m
1f
1_
1^
0X
1Q
1J
0e
0_
1v
1o
1h
1a
0Z
1S
1L
15
16
07
18
19
1:
1;
1l
0f
1&
1'
1(
1)
0*
1+
1,
0a
08
0s
0m
0)
0h
09
0t
0(
0o
0:
0'
0v
0;
0&
#250000
b110 !
b101111 "
b101011 "
b100110 !
b10101011 "
b110110 !
b1110110 !
b1110010 !
b10100011 "
0#
0%
0$
0M
0T
0[
1p
0@
0O
1]
1d
1k
0D
0<
0>
0N
0Y
0U
0`
0\
0u
1I
1B
0Q
1_
1f
0n
1m
0j
1K
1v
1o
1h
1a
1Z
0S
0L
05
06
17
18
19
1:
1;
1W
1Q
0^
1X
0_
0J
0m
1&
1'
1(
1)
1*
0+
0,
0Z
0a
0v
0o
1L
15
0:
0;
08
07
0X
1e
1_
0*
0)
0&
0'
1,
0f
#256250
1$
1>
1u
0q
1n
1j
0c
1`
1\
1U
1N
0G
1C
1A
0?
1t
1m
0l
1f
0e
0_
1X
0W
0Q
0P
1J
1v
1o
1a
1E
14
18
1:
1;
0m
1l
0f
1^
0X
1W
1Q
1&
1'
1)
1-
1m
1_
0^
1X
0_
#262500
1%
0$
1<
0>
0j
0g
0\
0U
0N
0K
0A
1?
0m
1e
1_
0X
0Q
0h
0L
05
09
0l
1f
0(
0,
1s
1m
0t
#268750
1$
1>
1q
0n
1j
1c
0`
1\
1Y
1U
1R
1N
1G
1t
0s
0m
1l
0f
0e
0_
1X
1Q
1P
0J
0o
0a
1Z
1S
16
17
08
0:
0t
1m
1f
0W
0Q
0'
0)
1*
1+
1^
0X
1_
#275000
1#
0%
0$
1D
0<
0>
0u
0j
1g
0\
0Y
0U
0R
0N
1K
0C
0v
1o
1h
1a
0Z
0S
06
07
18
19
1:
0;
0m
0_
0^
1X
1W
1Q
0&
1'
1(
1)
0*
0+
1e
1_
0X
0o
0a
1Z
1S
16
17
08
0:
0f
0'
0)
1*
1+
1a
0Z
07
18
1)
0*
0h
09
0(
#281250
1$
1>
1u
0q
1n
1j
0c
1`
1\
1U
1N
0G
1C
1A
0?
1t
1m
0l
1f
0e
0_
1X
0W
0Q
0P
1J
0m
1l
0f
1^
0X
1W
1Q
1v
1o
1h
0a
1Z
0S
1L
15
06
17
08
19
1:
1;
1m
1_
0^
1X
1&
1'
1(
0)
1*
0+
1,
0o
0h
0Z
1S
16
07
09
0:
0_
0'
0(
0*
1+
1o
1a
1Z
17
18
1:
1'
1)
1*
0a
08
0)
#287500
1%
0$
1<
0>
0j
0g
0\
0U
0N
0K
0A
1?
0m
1e
1_
0X
0Q
0l
1f
0o
1a
0Z
0S
06
07
18
0:
1s
1m
0'
1)
0*
0+
1h
19
0t
1(
1o
1:
1'
0v
0;
0&
#293750
1$
1>
1q
0n
1j
1c
0`
1\
1Y
1U
1R
1N
1G
1t
0s
0m
1l
0f
0e
0_
1X
1Q
1P
0J
0t
1m
1f
0W
0Q
1v
0o
0h
0a
1Z
1S
0L
05
16
17
08
09
0:
1;
1^
0X
1&
0'
0(
0)
1*
1+
0,
0v
1o
1h
0S
06
19
1:
0;
1_
0&
1'
1(
0+
0Z
07
0*
1a
18
1)
#300000
b10100001 "
b11100001 "
b1111010 !
b11110001 "
b1011010 !
b1001010 !
b1010 !
b1110 !
b11111001 "
0#
0%
0$
1O
1V
0]
0d
0k
0F
1T
1[
1i
0D
0<
0>
0R
1Q
1X
0_
0f
0m
0G
0u
0N
0C
1v
0o
0h
0a
1Z
1S
16
17
08
09
0:
1;
0P
1J
0Q
1&
0'
0(
0)
1*
1+
0S
0v
0E
04
0;
06
1W
1Q
0+
0&
0-
0X
#306250
1$
1>
1u
0q
1n
0j
1g
0c
1`
0\
0U
1R
1N
1K
1G
1C
1A
0?
1t
1s
1m
0l
1f
1e
1_
0^
1X
0W
0Q
1P
0J
1v
1o
1h
1a
1S
1L
1E
14
15
16
18
19
1:
1;
0t
0m
0f
0_
1^
0X
1Q
1&
1'
1(
1)
1+
1,
1-
1_
#312500
1%
0$
1<
0>
0Y
0N
0G
0A
1?
0Q
0P
1J
0Z
07
1W
1Q
0*
0^
1X
0_
#318750
1$
1>
1q
1j
1c
1\
1U
0R
1N
0K
1G
1t
1m
1f
1_
1^
0X
0W
0Q
1P
0J
0S
0L
05
06
0e
0_
1X
1Q
0+
0,
1l
0f
0s
0m
0t
#325000
1#
0%
0$
1D
0<
0>
0u
0n
0g
0`
1Y
0N
0G
0C
0v
0o
0h
0a
1Z
1S
16
17
08
09
0:
0;
0Q
0P
1J
0&
0'
0(
0)
1*
1+
1W
1Q
0S
1L
15
06
0X
0+
1,
1S
16
1+
0Z
07
0*
#331250
1$
1>
1u
0q
1n
0j
1g
0c
1`
0\
0U
1R
1N
1K
1G
1C
1A
0?
1t
1s
1m
0l
1f
1e
1_
0^
1X
0W
0Q
1P
0J
0t
0m
0f
0_
1^
0X
1Q
1v
1o
1h
1a
1Z
0S
0L
05
06
17
18
19
1:
1;
1_
1&
1'
1(
1)
1*
0+
0,
0v
0o
0h
0a
0Z
1S
16
07
08
09
0:
0;
0&
0'
0(
0)
0*
1+
1a
18
1)
#337500
1%
0$
1<
0>
0Y
0N
0G
0A
1?
0Q
0P
1J
1W
1Q
0S
1L
15
06
0^
1X
0+
1,
1S
16
0_
1+
1Z
17
1*
0a
08
0)
#343750
1$
1>
1q
1j
1c
1\
1U
0R
1N
0K
1G
1t
1m
1f
1_
1^
0X
0W
0Q
1P
0J
0e
0_
1X
1Q
1v
1o
1h
1a
0Z
0S
0L
05
06
07
18
19
1:
1;
1l
0f
1&
1'
1(
1)
0*
0+
0,
0a
1Z
1S
16
17
08
0s
0m
0)
1*
1+
0h
09
0t
0(
0o
0:
0'
0v
0;
0&
#350000
b10001110 !
b11111101 "
b1111101 "
b1111111 "
b111111 "
b101111 "
b10011110 !
0#
0%
0$
1F
1M
0[
0i
0p
1]
1r
0D
0<
0>
1K
1R
0`
0\
0n
0j
0u
0q
1_
1t
0g
1Y
0C
1v
1o
1h
1a
0Z
0S
06
07
18
19
1:
1;
0_
1s
1m
0t
1&
1'
1(
1)
0*
0+
1L
1S
0a
0o
0v
0h
1Z
0E
04
17
09
0;
0:
08
16
15
1t
1,
1+
0)
0'
0&
0(
1*
0-
#356250
1$
1>
1u
1q
1j
1g
0c
1`
1\
0U
0N
0G
1C
1A
0?
0t
0s
0m
0l
1f
1_
0X
0Q
0P
1J
1v
1h
1a
1E
14
18
19
1;
1t
1s
1m
1W
1Q
1&
1(
1)
1-
0t
0^
1X
0_
#362500
1%
0$
1<
0>
0q
0j
0\
0Y
0R
0K
0A
1?
1t
0m
1e
1_
0Z
0S
0L
05
06
07
0f
0*
0+
0,
#368750
1$
1>
0u
1q
1n
1j
1c
0`
1\
1U
1N
1G
0t
1m
1f
0e
0_
1^
0X
0W
0Q
1P
0J
0v
1o
0a
08
1:
0;
1l
0f
1_
1X
1Q
0&
1'
0)
0s
0m
1t
#375000
1#
0%
0$
1D
0<
0>
0q
0n
0j
0g
0\
1Y
1R
1K
0C
1v
0o
0h
1a
1Z
1S
16
17
18
09
0:
1;
0t
1s
1m
0_
1&
0'
0(
1)
1*
1+
1t
0v
1o
0a
08
1:
0;
0&
1'
0)
1v
1;
1&
#381250
1$
1>
1u
1q
1j
1g
0c
1`
1\
0U
0N
0G
1C
1A
0?
0t
0s
0m
0l
1f
1_
0X
0Q
0P
1J
1t
1s
1m
1W
1Q
0v
0o
1h
1a
0Z
0S
1L
15
06
07
18
19
0:
0;
0t
0^
1X
0&
0'
1(
1)
0*
0+
1,
1v
1o
1S
16
1:
1;
0_
1&
1'
1+
0v
1Z
17
0;
0&
1*
0a
08
0)
#387500
1%
0$
1<
0>
0q
0j
0\
0Y
0R
0K
0A
1?
1t
0m
1e
1_
0f
1v
0o
1a
18
0:
1;
1&
0'
1)
0h
09
0(
#393750
1$
1>
0u
1q
1n
1j
1c
0`
1\
1U
1N
1G
0t
1m
1f
0e
0_
1^
0X
0W
0Q
1P
0J
1l
0f
1_
1X
1Q
0v
1o
1h
0a
0Z
0S
0L
05
06
07
08
19
1:
0;
0s
0m
0&
1'
1(
0)
0*
0+
0,
0h
1a
1Z
1S
16
17
18
09
1t
0(
1)
1*
1+
0o
0:
0'
1v
1;
1&
#400000
b100111 "
b1100111 "
b1110111 "
0#
0%
0$
0T
1[
1i
0D
0<
0>
0U
1`
0n
0q
0g
1R
1K
0C
0v
1o
1h
0a
0Z
0S
06
07
08
19
1:
0;
0X
0t
0&
1'
1(
0)
0*
0+
1a
0o
0h
1S
1L
0E
04
15
16
09
0:
18
1)
0'
0(
1+
1,
0-
#406250
1$
1>
1u
1q
1n
0j
1g
0c
0\
1Y
1U
0N
0G
1C
1A
0?
1t
1s
1m
0l
1f
0_
1X
0Q
0P
1J
1v
1o
1h
1Z
1E
14
17
19
1:
1;
0t
0m
1W
1Q
1&
1'
1(
1*
1-
0X
#412500
1%
0$
1<
0>
0q
0`
0U
0R
0K
0A
1?
1t
0^
1X
0a
0S
0L
05
06
08
1e
1_
0)
0+
0,
0f
#418750
1$
1>
0u
1q
1j
1c
1\
0Y
1U
1N
1G
0t
1m
1f
0e
0_
1^
0X
0W
0Q
1P
0J
0v
0Z
07
0;
1l
0f
1_
1X
1Q
0&
0*
0s
0m
1t
#425000
1#
0%
0$
1D
0<
0>
0q
0n
0g
1`
0U
1R
1K
0C
1v
0o
0h
1a
1Z
1S
16
17
18
09
0:
1;
0t
0X
1&
0'
0(
1)
1*
1+
0v
0Z
07
0;
0&
0*
#431250
1$
1>
1u
1q
1n
0j
1g
0c
0\
1Y
1U
0N
0G
1C
1A
0?
1t
1s
1m
0l
1f
0_
1X
0Q
0P
1J
0t
0m
1W
1Q
1v
1o
1h
0a
1Z
0S
1L
15
06
17
08
19
1:
1;
0X
1&
1'
1(
0)
1*
0+
1,
0v
0o
1S
16
0:
0;
0&
0'
1+
0Z
07
0*
#437500
1%
0$
1<
0>
0q
0`
0U
0R
0K
0A
1?
1t
0^
1X
1e
1_
1v
1Z
17
1;
0f
1&
1*
1a
18
1)
0h
09
0(
#443750
1$
1>
0u
1q
1j
1c
1\
0Y
1U
1N
1G
0t
1m
1f
0e
0_
1^
0X
0W
0Q
1P
0J
1l
0f
1_
1X
1Q
0v
1o
1h
0a
0Z
0S
0L
05
06
07
08
19
1:
0;
0s
0m
0&
1'
1(
0)
0*
0+
0,
0h
1a
1Z
1S
16
17
18
09
1t
0(
1)
1*
1+
0o
0:
0'
1v
1;
1&
#450000
b10011111 !
b10011011 !
b1110011 "
b110011 "
0#
0%
0$
0M
0i
1@
0O
0D
0<
0>
0N
0n
0j
0I
0B
0Q
0q
0g
1`
0U
1K
0v
1o
1h
0a
0Z
0S
06
07
08
19
1:
0;
1W
1Q
1s
1m
1J
0t
0X
0&
1'
1(
0)
0*
0+
0o
0h
1a
1L
15
18
09
0:
0^
1X
1t
0'
0(
1)
1,
0_
#456250
1$
1>
1u
1q
1j
1g
0c
0\
1Y
1U
1N
0G
1A
0?
0t
0s
0m
0l
1f
1e
1_
1^
0X
0W
0Q
0J
1v
1h
1Z
17
19
1;
1t
1s
1m
0f
0e
0_
1X
1&
1(
1*
0t
1f
#462500
1%
0$
1<
0>
0q
0j
0`
0U
0N
0K
0C
0A
1?
1t
0m
0X
1W
1Q
0a
0L
0E
04
05
08
0^
1X
0)
0,
0-
1e
1_
0f
#468750
1$
1>
0u
1q
1n
1j
1c
1\
0Y
1U
1R
1N
1G
0t
1m
1f
0e
0_
1^
0X
0W
0Q
1J
0v
1o
0Z
1S
16
07
1:
0;
1l
0f
1_
1X
0&
1'
0*
1+
0s
0m
1t
#475000
1#
0%
0$
1D
0<
0>
0q
0n
0j
0g
1`
0U
0R
0N
1K
1C
1v
0o
0h
1a
1Z
0S
1L
15
06
17
18
09
0:
1;
0t
1s
1m
0X
1W
1Q
1&
0'
0(
1)
1*
0+
1,
1t
0^
1X
0v
1o
0Z
1S
16
07
1:
0;
0_
0&
1'
0*
1+
1v
1Z
17
1;
1&
1*
0a
08
0)
#481250
1$
1>
1u
1q
1j
1g
0c
0\
1Y
1U
1N
0G
1A
0?
0t
0s
0m
0l
1f
1e
1_
1^
0X
0W
0Q
0J
1t
1s
1m
0f
0e
0_
1X
0v
0o
1h
1a
0Z
0S
0L
05
06
07
18
19
0:
0;
0t
1f
0&
0'
1(
1)
0*
0+
0,
1v
1o
0h
0a
1Z
17
08
09
1:
1;
1&
1'
0(
0)
1*
0v
1h
19
0;
0&
1(
#487500
1%
0$
1<
0>
0q
0j
0`
0U
0N
0K
0C
0A
1?
1t
0m
0X
1W
1Q
0^
1X
1v
0o
0Z
1S
16
07
0:
1;
1e
1_
1&
0'
0*
1+
1Z
17
0f
1*
1a
18
1)
0h
09
0(
