0017_vhdl17_carry_ripple_adder/carry_ripple_adder_block_project/simulation/qsim/carry_ripple.msim.vcd
$comment
	File created using the following command:
		vcd file carry_ripple.msim.vcd -direction
$end
$date
	Sun Jul 14 15:15:07 2019
$end
$version
	ModelSim Version 10.5b
$end
$timescale
	1ps
$end

$scope module carry_ripple_vlg_vec_tst $end
$var reg 1 ! A0 $end
$var reg 1 " A1 $end
$var reg 1 # A2 $end
$var reg 1 $ A3 $end
$var reg 1 % B0 $end
$var reg 1 & B1 $end
$var reg 1 ' B2 $end
$var reg 1 ( B3 $end
$var reg 1 ) CARRY_IN $end
$var wire 1 * CARRY_OUT $end
$var wire 1 + S0 $end
$var wire 1 , S1 $end
$var wire 1 - S2 $end
$var wire 1 . S3 $end

$scope module i1 $end
$var wire 1 / gnd $end
$var wire 1 0 vcc $end
$var wire 1 1 unknown $end
$var tri1 1 2 devclrn $end
$var tri1 1 3 devpor $end
$var tri1 1 4 devoe $end
$var wire 1 5 CARRY_OUT~output_o $end
$var wire 1 6 S3~output_o $end
$var wire 1 7 S2~output_o $end
$var wire 1 8 S1~output_o $end
$var wire 1 9 S0~output_o $end
$var wire 1 : A3~input_o $end
$var wire 1 ; B3~input_o $end
$var wire 1 < A2~input_o $end
$var wire 1 = B2~input_o $end
$var wire 1 > A1~input_o $end
$var wire 1 ? B1~input_o $end
$var wire 1 @ CARRY_IN~input_o $end
$var wire 1 A A0~input_o $end
$var wire 1 B B0~input_o $end
$var wire 1 C inst2|inst2~combout $end
$var wire 1 D inst|inst2~combout $end
$var wire 1 E inst|inst1|inst~combout $end
$var wire 1 F inst1|inst1|inst~combout $end
$var wire 1 G inst2|inst1|inst~combout $end
$var wire 1 H inst3|inst1|inst~combout $end
$upscope $end
$upscope $end
$enddefinitions $end
#0
$dumpvars
0!
1"
1#
0$
1%
1&
1'
0(
0)
0*
1+
0,
1-
1.
0/
10
x1
12
13
14
05
16
17
08
19
0:
0;
1<
1=
1>
1?
0@
0A
1B
1C
0D
1E
1F
0G
1H
$end
#50000
1$
1!
1(
0&
0%
1:
1A
1;
0?
0B
0C
1G
1D
15
18
1,
1*
0F
07
0-
#100000
0#
0"
1)
0$
0!
0(
1%
0<
0>
1@
0:
0A
0;
1B
0H
0E
0D
1F
17
05
06
09
0+
0.
0*
1-
#150000
0'
1&
1#
1"
1$
0%
0=
1?
1<
1>
1:
0B
1C
1H
0G
1E
16
08
19
1+
0,
1.
0F
0E
1D
15
06
07
0-
0.
1*
#200000
0)
1'
0&
0"
0@
1=
0?
0>
0C
1F
0H
09
17
1-
0+
0F
07
0-
#250000
1!
0$
1%
1&
1A
0:
1B
1?
1C
1E
0D
05
16
1.
0*
1F
17
1-
#300000
1(
0#
0!
0&
1;
0<
0A
0?
0C
1H
0F
0E
1D
15
06
07
19
1+
0-
0.
1*
1F
1E
0D
05
16
17
1-
1.
0*
#350000
1)
0'
1$
0%
1#
1!
1@
0=
1:
0B
1<
1A
0H
1G
0E
1D
15
06
18
09
0+
1,
0.
1*
#400000
0(
1&
1%
0#
0;
1?
1B
0<
1C
0F
1E
0D
1H
0G
08
19
05
16
07
0-
1.
0*
1+
0,
1F
17
1-
#450000
0$
0%
0:
0B
0H
0E
06
09
0+
0.
#500000
1"
0)
0&
1#
1$
1%
1>
0@
0?
1<
1:
1B
1D
0F
07
15
1*
0-
#550000
1'
1)
0$
1=
1@
0:
1E
0D
1H
1F
17
19
05
16
1.
0*
1+
1-
#600000
1&
0'
0)
1$
1?
0=
0@
1:
0E
1D
0H
1G
0F
07
18
09
15
06
0.
1*
0+
1,
0-
#650000
0!
1(
1'
1)
0$
0A
1;
1=
1@
0:
1F
17
1-
#700000
0&
1!
0(
0'
0?
1A
0;
0=
0F
1E
0D
1H
0G
08
19
05
16
07
0-
1.
0*
1+
0,
#750000
0"
0%
0)
1$
1'
0>
0B
0@
1:
1=
0C
1F
0E
1D
15
06
17
1-
0.
1*
0F
07
0-
#800000
1(
1%
0$
1;
1B
0:
0H
1G
18
09
0+
1,
#850000
0#
1&
1"
1)
0'
0(
0%
0<
1?
1>
1@
0=
0;
0B
1C
0D
05
0*
1F
17
1-
#900000
0!
1$
1#
0"
0)
1(
1%
0A
1:
1<
0>
0@
1;
1B
0C
1H
1E
1D
0F
07
15
16
19
1+
1.
1*
0-
1F
0E
06
17
1-
0.
#950000
1!
0$
1A
0:
1C
1E
0D
0H
0G
08
09
05
16
1.
0*
0+
0,
0F
0E
1D
15
06
07
0-
0.
1*
