0019_vhdl19_generic_adder/simulation/qsim/generic_adder.msim.vcd
$comment
	File created using the following command:
		vcd file generic_adder.msim.vcd -direction
$end
$date
	Thu Jul 25 18:07:53 2019
$end
$version
	ModelSim Version 10.5b
$end
$timescale
	1ps
$end

$scope module carry_ripple_adder_vhd_vec_tst $end
$var wire 1 ! A [11] $end
$var wire 1 " A [10] $end
$var wire 1 # A [9] $end
$var wire 1 $ A [8] $end
$var wire 1 % A [7] $end
$var wire 1 & A [6] $end
$var wire 1 ' A [5] $end
$var wire 1 ( A [4] $end
$var wire 1 ) A [3] $end
$var wire 1 * A [2] $end
$var wire 1 + A [1] $end
$var wire 1 , A [0] $end
$var wire 1 - B [11] $end
$var wire 1 . B [10] $end
$var wire 1 / B [9] $end
$var wire 1 0 B [8] $end
$var wire 1 1 B [7] $end
$var wire 1 2 B [6] $end
$var wire 1 3 B [5] $end
$var wire 1 4 B [4] $end
$var wire 1 5 B [3] $end
$var wire 1 6 B [2] $end
$var wire 1 7 B [1] $end
$var wire 1 8 B [0] $end
$var wire 1 9 CARRY_IN $end
$var wire 1 : CARRY_OUT $end
$var wire 1 ; S [11] $end
$var wire 1 < S [10] $end
$var wire 1 = S [9] $end
$var wire 1 > S [8] $end
$var wire 1 ? S [7] $end
$var wire 1 @ S [6] $end
$var wire 1 A S [5] $end
$var wire 1 B S [4] $end
$var wire 1 C S [3] $end
$var wire 1 D S [2] $end
$var wire 1 E S [1] $end
$var wire 1 F S [0] $end

$scope module i1 $end
$var wire 1 G gnd $end
$var wire 1 H vcc $end
$var wire 1 I unknown $end
$var wire 1 J devoe $end
$var wire 1 K devclrn $end
$var wire 1 L devpor $end
$var wire 1 M ww_devoe $end
$var wire 1 N ww_devclrn $end
$var wire 1 O ww_devpor $end
$var wire 1 P ww_A [11] $end
$var wire 1 Q ww_A [10] $end
$var wire 1 R ww_A [9] $end
$var wire 1 S ww_A [8] $end
$var wire 1 T ww_A [7] $end
$var wire 1 U ww_A [6] $end
$var wire 1 V ww_A [5] $end
$var wire 1 W ww_A [4] $end
$var wire 1 X ww_A [3] $end
$var wire 1 Y ww_A [2] $end
$var wire 1 Z ww_A [1] $end
$var wire 1 [ ww_A [0] $end
$var wire 1 \ ww_B [11] $end
$var wire 1 ] ww_B [10] $end
$var wire 1 ^ ww_B [9] $end
$var wire 1 _ ww_B [8] $end
$var wire 1 ` ww_B [7] $end
$var wire 1 a ww_B [6] $end
$var wire 1 b ww_B [5] $end
$var wire 1 c ww_B [4] $end
$var wire 1 d ww_B [3] $end
$var wire 1 e ww_B [2] $end
$var wire 1 f ww_B [1] $end
$var wire 1 g ww_B [0] $end
$var wire 1 h ww_CARRY_IN $end
$var wire 1 i ww_S [11] $end
$var wire 1 j ww_S [10] $end
$var wire 1 k ww_S [9] $end
$var wire 1 l ww_S [8] $end
$var wire 1 m ww_S [7] $end
$var wire 1 n ww_S [6] $end
$var wire 1 o ww_S [5] $end
$var wire 1 p ww_S [4] $end
$var wire 1 q ww_S [3] $end
$var wire 1 r ww_S [2] $end
$var wire 1 s ww_S [1] $end
$var wire 1 t ww_S [0] $end
$var wire 1 u ww_CARRY_OUT $end
$var wire 1 v \S[0]~output_o\ $end
$var wire 1 w \S[1]~output_o\ $end
$var wire 1 x \S[2]~output_o\ $end
$var wire 1 y \S[3]~output_o\ $end
$var wire 1 z \S[4]~output_o\ $end
$var wire 1 { \S[5]~output_o\ $end
$var wire 1 | \S[6]~output_o\ $end
$var wire 1 } \S[7]~output_o\ $end
$var wire 1 ~ \S[8]~output_o\ $end
$var wire 1 !! \S[9]~output_o\ $end
$var wire 1 "! \S[10]~output_o\ $end
$var wire 1 #! \S[11]~output_o\ $end
$var wire 1 $! \CARRY_OUT~output_o\ $end
$var wire 1 %! \CARRY_IN~input_o\ $end
$var wire 1 &! \A[0]~input_o\ $end
$var wire 1 '! \B[0]~input_o\ $end
$var wire 1 (! \gen:0:FA|ha2|SUM~combout\ $end
$var wire 1 )! \A[1]~input_o\ $end
$var wire 1 *! \B[1]~input_o\ $end
$var wire 1 +! \gen:1:FA|ha2|SUM~combout\ $end
$var wire 1 ,! \gen:1:FA|CARRY~combout\ $end
$var wire 1 -! \A[2]~input_o\ $end
$var wire 1 .! \B[2]~input_o\ $end
$var wire 1 /! \gen:2:FA|ha2|SUM~combout\ $end
$var wire 1 0! \A[3]~input_o\ $end
$var wire 1 1! \B[3]~input_o\ $end
$var wire 1 2! \gen:3:FA|ha2|SUM~combout\ $end
$var wire 1 3! \A[4]~input_o\ $end
$var wire 1 4! \B[4]~input_o\ $end
$var wire 1 5! \gen:4:FA|ha1|SUM~combout\ $end
$var wire 1 6! \gen:4:FA|ha2|SUM~combout\ $end
$var wire 1 7! \gen:4:FA|ha1|CARRY~combout\ $end
$var wire 1 8! \gen:4:FA|ha2|CARRY~combout\ $end
$var wire 1 9! \A[5]~input_o\ $end
$var wire 1 :! \B[5]~input_o\ $end
$var wire 1 ;! \gen:5:FA|ha2|SUM~combout\ $end
$var wire 1 <! \A[6]~input_o\ $end
$var wire 1 =! \B[6]~input_o\ $end
$var wire 1 >! \gen:6:FA|ha2|SUM~combout\ $end
$var wire 1 ?! \gen:6:FA|CARRY~combout\ $end
$var wire 1 @! \A[7]~input_o\ $end
$var wire 1 A! \B[7]~input_o\ $end
$var wire 1 B! \gen:7:FA|ha2|SUM~combout\ $end
$var wire 1 C! \A[8]~input_o\ $end
$var wire 1 D! \B[8]~input_o\ $end
$var wire 1 E! \gen:8:FA|ha2|SUM~combout\ $end
$var wire 1 F! \A[9]~input_o\ $end
$var wire 1 G! \B[9]~input_o\ $end
$var wire 1 H! \gen:9:FA|ha1|SUM~combout\ $end
$var wire 1 I! \gen:9:FA|ha2|SUM~combout\ $end
$var wire 1 J! \gen:9:FA|ha1|CARRY~combout\ $end
$var wire 1 K! \gen:9:FA|ha2|CARRY~combout\ $end
$var wire 1 L! \A[10]~input_o\ $end
$var wire 1 M! \B[10]~input_o\ $end
$var wire 1 N! \gen:10:FA|ha2|SUM~combout\ $end
$var wire 1 O! \A[11]~input_o\ $end
$var wire 1 P! \B[11]~input_o\ $end
$var wire 1 Q! \gen:11:FA|ha2|SUM~combout\ $end
$var wire 1 R! \gen:11:FA|CARRY~combout\ $end
$var wire 1 S! \ALT_INV_B[11]~input_o\ $end
$var wire 1 T! \ALT_INV_A[11]~input_o\ $end
$var wire 1 U! \ALT_INV_B[10]~input_o\ $end
$var wire 1 V! \ALT_INV_A[10]~input_o\ $end
$var wire 1 W! \ALT_INV_B[9]~input_o\ $end
$var wire 1 X! \ALT_INV_A[9]~input_o\ $end
$var wire 1 Y! \ALT_INV_B[8]~input_o\ $end
$var wire 1 Z! \ALT_INV_A[8]~input_o\ $end
$var wire 1 [! \ALT_INV_B[7]~input_o\ $end
$var wire 1 \! \ALT_INV_A[7]~input_o\ $end
$var wire 1 ]! \ALT_INV_B[6]~input_o\ $end
$var wire 1 ^! \ALT_INV_A[6]~input_o\ $end
$var wire 1 _! \ALT_INV_B[5]~input_o\ $end
$var wire 1 `! \ALT_INV_A[5]~input_o\ $end
$var wire 1 a! \ALT_INV_B[4]~input_o\ $end
$var wire 1 b! \ALT_INV_A[4]~input_o\ $end
$var wire 1 c! \ALT_INV_B[3]~input_o\ $end
$var wire 1 d! \ALT_INV_A[3]~input_o\ $end
$var wire 1 e! \ALT_INV_B[2]~input_o\ $end
$var wire 1 f! \ALT_INV_A[2]~input_o\ $end
$var wire 1 g! \ALT_INV_B[1]~input_o\ $end
$var wire 1 h! \ALT_INV_A[1]~input_o\ $end
$var wire 1 i! \ALT_INV_B[0]~input_o\ $end
$var wire 1 j! \ALT_INV_A[0]~input_o\ $end
$var wire 1 k! \ALT_INV_CARRY_IN~input_o\ $end
$var wire 1 l! \gen:9:FA|ha2|ALT_INV_CARRY~combout\ $end
$var wire 1 m! \gen:9:FA|ha1|ALT_INV_CARRY~combout\ $end
$var wire 1 n! \gen:9:FA|ha1|ALT_INV_SUM~combout\ $end
$var wire 1 o! \gen:6:FA|ALT_INV_CARRY~combout\ $end
$var wire 1 p! \gen:4:FA|ha2|ALT_INV_CARRY~combout\ $end
$var wire 1 q! \gen:4:FA|ha1|ALT_INV_CARRY~combout\ $end
$var wire 1 r! \gen:4:FA|ha1|ALT_INV_SUM~combout\ $end
$var wire 1 s! \gen:1:FA|ALT_INV_CARRY~combout\ $end
$upscope $end
$upscope $end
$enddefinitions $end
#0
$dumpvars
09
1:
0G
1H
xI
1J
1K
1L
1M
1N
1O
0h
1u
0v
0w
1x
0y
1z
1{
0|
0}
0~
0!!
0"!
0#!
1$!
0%!
0&!
0'!
0(!
0)!
0*!
0+!
0,!
1-!
0.!
1/!
10!
11!
02!
03!
04!
05!
16!
07!
08!
09!
1:!
1;!
1<!
1=!
0>!
0?!
1@!
0A!
0B!
1C!
0D!
0E!
1F!
0G!
1H!
0I!
0J!
1K!
0L!
1M!
0N!
0O!
1P!
0Q!
1R!
0S!
1T!
0U!
1V!
1W!
0X!
1Y!
0Z!
1[!
0\!
0]!
0^!
0_!
1`!
1a!
1b!
0c!
0d!
1e!
0f!
1g!
1h!
1i!
1j!
1k!
0l!
1m!
0n!
1o!
1p!
1q!
1r!
1s!
0!
0"
1#
1$
1%
1&
0'
0(
1)
1*
0+
0,
1-
1.
0/
00
01
12
13
04
15
06
07
08
0P
0Q
1R
1S
1T
1U
0V
0W
1X
1Y
0Z
0[
1\
1]
0^
0_
0`
1a
1b
0c
1d
0e
0f
0g
0i
0j
0k
0l
0m
0n
1o
1p
0q
1r
0s
0t
0;
0<
0=
0>
0?
0@
1A
1B
0C
1D
0E
0F
$end
#50000
1"
0#
0$
0%
0&
0)
1+
0-
10
11
02
05
1Z
0X
0U
0T
0S
0R
1Q
0d
0a
1`
1_
0\
0P!
1D!
1A!
0=!
01!
1L!
0F!
0C!
0@!
0<!
00!
1)!
0h!
1d!
1^!
1\!
1Z!
1X!
0V!
1c!
1]!
0[!
0Y!
1S!
1N!
1Q!
0R!
0H!
1?!
06!
1+!
0o!
1n!
1B!
1E!
0K!
1l!
1w
0z
0$!
1#!
1"!
0N!
1s
0p
0u
1i
1j
1E
0B
1<
1;
0:
1~
1}
1l
1m
1?
1>
0"!
0j
0<
#100000
1#
0+
1-
15
1'
03
14
16
0Z
1V
1R
1e
1d
1c
0b
1\
1P!
0:!
14!
11!
1.!
1F!
19!
0)!
1h!
0`!
0X!
0e!
0c!
0a!
1_!
0S!
0Q!
1R!
15!
0/!
16!
1H!
0+!
0n!
0r!
06!
18!
1I!
0p!
0w
1z
0x
1$!
0#!
0;!
1>!
0s
1p
0r
1u
0i
0E
0D
1B
0;
1:
1!!
0z
1k
0p
0B
1=
1|
0{
1n
0o
0A
1@
#150000
1+
0-
0'
13
06
0"
1%
1)
00
1(
0*
1,
17
18
1[
1Z
0Y
1X
1W
0V
1T
0Q
1g
1f
0e
1b
0_
0\
0P!
0D!
1:!
0.!
1*!
1'!
0L!
1@!
09!
13!
10!
0-!
1)!
1&!
0j!
0h!
1f!
0d!
0b!
1`!
0\!
1V!
0i!
0g!
1e!
0_!
1Y!
1S!
1N!
0R!
0B!
05!
17!
1+!
1,!
0s!
0q!
1r!
1/!
16!
08!
1p!
1w
0}
0$!
1"!
1s
0m
0u
1j
1E
0?
1<
0:
1z
1x
1p
1r
1D
1B
#200000
1-
1'
16
0%
0)
0(
0,
0#
04
1&
01
1!
0.
1e
0c
0`
0]
1\
0[
0X
0W
1V
1U
0T
0R
1P
1O!
0F!
0@!
1<!
19!
03!
00!
0&!
1P!
0M!
0A!
04!
1.!
0e!
1a!
1[!
1U!
0S!
1j!
1d!
1b!
0`!
0^!
1\!
1X!
0T!
0H!
1;!
0>!
0?!
1(!
0+!
0N!
1R!
0E!
07!
0/!
1q!
1o!
1n!
1B!
0I!
0;!
0x
0~
1$!
0"!
0w
1v
0|
1{
0r
0l
1u
0j
0s
1t
0n
1o
1F
0E
0D
1A
0@
0>
0<
1:
0{
0!!
1}
0o
0k
1m
0A
1?
0=
#250000
0'
06
1%
1,
1#
0&
0!
0+
1"
10
1*
07
08
1$
1/
1[
0Z
1Y
0V
0U
1T
1S
1R
1Q
0P
0g
0f
0e
1_
1^
1G!
1D!
0.!
0*!
0'!
0O!
1L!
1F!
1C!
1@!
0<!
09!
1-!
0)!
1&!
0j!
1h!
0f!
1`!
1^!
0\!
0Z!
0X!
0V!
1T!
1i!
1g!
1e!
0Y!
0W!
1N!
1Q!
0R!
1J!
0B!
1E!
1I!
1;!
1?!
0,!
1s!
0o!
0m!
0N!
0Q!
1R!
1B!
0E!
1/!
12!
06!
1{
1!!
1~
0}
0$!
1#!
1"!
1o
1k
1l
0m
0u
1i
1j
1A
0?
1>
1=
1<
1;
0:
0z
1y
1x
0~
1}
1$!
0#!
0"!
0p
1q
1r
0l
1m
1u
0i
0j
1D
1C
0B
1?
0>
0<
0;
1:
#300000
1'
16
0,
1!
1+
18
0$
0/
1(
14
03
05
0[
1Z
1W
1V
0S
1P
1g
1e
0d
1c
0b
0^
0G!
0:!
14!
01!
1.!
1'!
1O!
0C!
19!
13!
1)!
0&!
1j!
0h!
0b!
0`!
1Z!
0T!
0i!
0e!
1c!
0a!
1_!
1W!
1H!
0J!
0/!
1Q!
1E!
0I!
17!
1+!
0q!
1m!
0n!
1I!
1N!
0Q!
0;!
1>!
1w
0!!
1~
1#!
0x
1s
0k
1l
1i
0r
1E
0D
1>
0=
1;
1|
0{
0#!
1"!
1!!
1n
0o
0i
1j
1k
0A
1@
1=
1<
0;
#350000
0'
1,
0!
08
04
15
0%
00
0*
11
1.
1[
0Y
0V
0T
0P
0g
1d
0c
1`
0_
1]
1M!
0D!
1A!
04!
11!
0'!
0O!
0@!
09!
0-!
1&!
0j!
1f!
1`!
1\!
1T!
1i!
0c!
1a!
0[!
1Y!
0U!
0N!
15!
07!
0E!
1;!
0>!
1/!
1q!
0r!
16!
0;!
1x
0|
1{
0~
0"!
1r
0n
1o
0l
0j
1D
1A
0@
0>
0<
0{
1z
0o
1p
1B
0A
#400000
0,
18
05
01
06
0+
1$
1/
0(
0#
1&
1)
12
0[
0Z
1X
0W
1U
1S
0R
1g
0e
0d
1a
0`
1^
1G!
0A!
1=!
01!
0.!
1'!
0F!
1C!
1<!
03!
10!
0)!
0&!
1j!
1h!
0d!
1b!
0^!
0Z!
1X!
0i!
1e!
1c!
0]!
1[!
0W!
0B!
0/!
1E!
0?!
05!
0+!
1r!
1o!
1B!
06!
0w
1~
0x
0}
0s
1l
0r
0m
0E
0D
0?
1>
0z
1}
0p
1m
0B
1?
#450000
11
16
0$
1(
1#
0&
1'
1!
14
1%
1*
0.
13
17
0-
1f
1e
1c
1b
1`
0]
0\
1Y
1W
1V
0U
1T
0S
1R
1P
1O!
1F!
0C!
1@!
0<!
19!
13!
1-!
0P!
0M!
1A!
1:!
14!
1.!
1*!
0g!
0e!
0a!
0_!
0[!
1U!
1S!
0f!
0b!
0`!
1^!
0\!
1Z!
0X!
0T!
0H!
1J!
1N!
1Q!
0R!
17!
02!
16!
1+!
0q!
0m!
1n!
0I!
0N!
0Q!
1R!
1;!
1w
1z
0y
0$!
1#!
1"!
1s
1p
0q
0u
1i
1j
1E
0C
1B
1<
1;
0:
1{
1$!
0#!
0"!
0!!
1o
1u
0i
0j
0k
1A
0=
0<
0;
1:
#500000
0#
1&
0'
0!
0*
03
07
1-
1,
08
0/
02
0"
1[
0Y
0V
1U
0R
0Q
0P
0g
0f
0b
0a
0^
1\
1P!
0G!
0=!
0:!
0*!
0'!
0O!
0L!
0F!
1<!
09!
0-!
1&!
0j!
1f!
1`!
0^!
1X!
1V!
1T!
1i!
1g!
1_!
1]!
1W!
0S!
1N!
1Q!
0R!
0J!
1>!
1?!
1/!
12!
06!
0+!
0o!
1m!
0N!
0B!
0w
0z
1y
1x
1|
0$!
1#!
1"!
0s
0p
1q
1r
1n
0u
1i
1j
0E
1D
1C
0B
1@
1<
1;
0:
0}
0"!
0m
0j
0?
0<
#550000
0&
1!
1*
13
17
0-
0,
18
12
01
06
04
1.
15
0)
10
0[
1Y
0X
0U
1P
1g
1f
0e
1d
0c
1b
1a
0`
1_
1]
0\
0P!
1M!
1D!
0A!
1=!
1:!
04!
11!
0.!
1*!
1'!
1O!
0<!
00!
1-!
0&!
1j!
0f!
1d!
1^!
0T!
0i!
0g!
1e!
0c!
1a!
0_!
0]!
1[!
0Y!
0U!
1S!
1N!
1B!
0;!
15!
07!
0>!
0?!
1+!
1o!
1q!
0r!
16!
1;!
1>!
1?!
0B!
0E!
1I!
0o!
1w
0|
0{
1}
1"!
1B!
1E!
0I!
1s
0n
0o
1m
1j
1E
0A
0@
1?
1<
1!!
0~
0}
1|
1{
1z
1k
0l
0m
1n
1o
1p
1B
1A
1@
0?
0>
1=
0!!
1~
1}
0k
1l
1m
1?
1>
0=
#600000
03
1,
11
14
0.
05
1)
1"
0(
1+
0d
1c
0b
1`
0]
1[
1Z
1X
0W
1Q
1L!
03!
10!
1)!
1&!
0M!
1A!
0:!
14!
01!
1c!
0a!
1_!
0[!
1U!
0j!
0h!
0d!
1b!
0V!
0(!
1,!
0B!
0E!
1I!
0;!
0s!
0/!
02!
06!
18!
0p!
0{
1!!
0~
0}
0v
1;!
0o
1k
0l
0m
0t
0F
0A
0?
0>
1=
0z
0y
0x
0p
0q
0r
0D
0C
0B
1{
1o
1A
#650000
13
0,
01
04
15
0"
1(
0+
0!
02
16
00
1'
1/
1e
1d
0c
1b
0a
0`
0_
1^
0[
0Z
1W
1V
0Q
0P
0O!
0L!
19!
13!
0)!
0&!
1G!
0D!
0A!
0=!
1:!
04!
11!
1.!
0e!
0c!
1a!
0_!
1]!
1[!
1Y!
0W!
1j!
1h!
0b!
0`!
1V!
1T!
0N!
0Q!
1(!
0,!
1H!
1B!
0I!
1/!
12!
0n!
1s!
0/!
1I!
1y
1x
0!!
1}
1v
0#!
0"!
1q
1r
0k
1m
1t
0i
0j
1F
1D
1C
1?
0=
0<
0;
1!!
0x
1k
0r
0D
1=
#700000
14
0(
1+
1!
10
0'
1.
0)
1&
08
1#
1$
0%
0g
1c
1_
1]
1Z
0X
0W
0V
1U
0T
1S
1R
1P
1O!
1F!
1C!
0@!
1<!
09!
03!
00!
1)!
1M!
1D!
14!
0'!
1i!
0a!
0Y!
0U!
0h!
1d!
1b!
1`!
0^!
1\!
0Z!
0X!
0T!
0H!
1J!
0B!
0;!
0>!
0?!
02!
1N!
1Q!
0I!
1K!
0(!
0+!
1,!
0s!
0l!
1o!
0m!
1n!
1B!
1I!
0K!
0N!
0Q!
1R!
1/!
1l!
0w
0v
0!!
1#!
1"!
0y
0|
0{
0}
0s
0t
0k
1i
1j
0q
0n
0o
0m
0F
0E
0C
0A
0@
0?
0=
1<
1;
1x
1$!
0#!
0"!
1!!
1}
1r
1u
0i
0j
1k
1m
1D
1?
1=
0<
0;
1:
#750000
1(
0!
0.
1)
0&
0#
1%
1,
11
0*
1[
0Y
1X
1W
0U
1T
0R
0P
1`
0]
0M!
1A!
0O!
0F!
1@!
0<!
13!
10!
0-!
1&!
0j!
1f!
0d!
0b!
1^!
0\!
1X!
1T!
0[!
1U!
1N!
0R!
1H!
0J!
1E!
1>!
1?!
05!
17!
0/!
12!
1(!
0q!
1r!
0o!
1m!
0n!
0N!
0B!
0I!
1K!
16!
08!
1p!
0l!
1v
1y
0x
1|
1~
0$!
1"!
1N!
1t
1q
0r
1n
1l
0u
1j
1F
0D
1C
1@
1>
1<
0:
1z
0!!
0}
0"!
1p
0k
0m
0j
1B
0?
0=
0<
1"!
1j
1<
#800000
1!
1&
01
04
0+
00
18
0$
03
05
12
06
07
0Z
1U
0S
1P
1g
0f
0e
0d
0c
0b
1a
0`
0_
0D!
0A!
1=!
0:!
04!
01!
0.!
0*!
1'!
1O!
0C!
1<!
0)!
1h!
0^!
1Z!
0T!
0i!
1g!
1e!
1c!
1a!
1_!
0]!
1[!
1Y!
1B!
1;!
15!
07!
1/!
06!
0(!
1Q!
0E!
1I!
0K!
0>!
0?!
1+!
0,!
1s!
1o!
1l!
1q!
0r!
0;!
0N!
0B!
1E!
0/!
16!
1w
0|
1!!
0~
1#!
0v
0z
1x
1{
1}
1s
0n
1k
0l
1i
0t
0p
1r
1o
1m
0F
1E
1D
0B
1A
0@
1?
0>
1=
1;
1z
0x
1~
0}
0"!
0{
1p
0r
1l
0m
0j
0o
0D
1B
0A
0?
1>
0<
#850000
0!
0&
1$
15
16
1.
0%
0,
1*
0/
0[
1Y
0U
0T
1S
0P
1e
1d
0^
1]
1M!
0G!
11!
1.!
0O!
1C!
0@!
0<!
1-!
0&!
1j!
0f!
1^!
1\!
0Z!
1T!
0e!
0c!
1W!
0U!
1N!
0H!
0Q!
1B!
1>!
1?!
06!
18!
1(!
0+!
0p!
0o!
1n!
0B!
0I!
1;!
0w
1v
0z
1|
1}
0#!
1"!
0s
1t
0p
1n
1m
0i
1j
1F
0E
0B
1@
1?
1<
0;
1{
0!!
0}
1o
0k
0m
1A
0?
0=
#900000
05
06
0.
1%
1,
1/
0(
1'
1"
0e
0d
1^
0]
1[
0W
1V
1T
1Q
1L!
1@!
19!
03!
1&!
0M!
1G!
01!
0.!
1e!
1c!
0W!
1U!
0j!
1b!
0`!
0\!
0V!
1B!
0;!
0>!
0?!
05!
0(!
1+!
1H!
1/!
16!
08!
1p!
0n!
1r!
1o!
0B!
0E!
06!
1K!
1;!
1>!
1?!
0o!
0l!
1z
1x
1w
0v
0|
0{
1}
0N!
1Q!
1B!
1E!
1I!
0K!
1p
1r
1s
0t
0n
0o
1m
1l!
0F
1E
1D
1B
0A
0@
1?
1|
1{
0z
0~
0}
1N!
0Q!
1n
1o
0p
0l
0m
0B
1A
1@
0?
0>
1!!
1~
1}
1#!
0"!
1k
1l
1m
1i
0j
1?
1>
1=
0<
1;
0#!
1"!
0i
1j
1<
0;
#950000
15
16
1.
0%
0,
1(
1!
1&
0$
11
13
02
17
1#
1f
1e
1d
1b
0a
1`
1]
0[
1W
1U
0T
0S
1R
1P
1O!
1F!
0C!
0@!
1<!
13!
0&!
1M!
1A!
0=!
1:!
11!
1.!
1*!
0g!
0e!
0c!
0_!
1]!
0[!
0U!
1j!
0b!
0^!
1\!
1Z!
0X!
0T!
0H!
1J!
15!
1(!
0N!
1R!
0E!
0;!
0>!
0?!
0/!
16!
1o!
0r!
0m!
1n!
1N!
06!
18!
0B!
1E!
0I!
0p!
1z
0x
0|
0{
0~
1$!
0"!
1v
1;!
1p
0r
0n
0o
0l
1u
0j
1t
1F
0D
1B
0A
0@
0>
0<
1:
0!!
1~
0}
0z
1"!
0k
1l
0m
0p
1j
0B
0?
1>
0=
1<
1{
1o
1A
