vhdl8_somador4_sim/simulation/qsim/somador.msim.vcd
$comment
	File created using the following command:
		vcd file somador.msim.vcd -direction
$end
$date
	Mon Jun 10 09:41:27 2019
$end
$version
	ModelSim Version 10.5b
$end
$timescale
	1ps
$end

$scope module somador_vlg_vec_tst $end
$var reg 4 ! a [3:0] $end
$var reg 4 " b [3:0] $end
$var wire 1 # z [3] $end
$var wire 1 $ z [2] $end
$var wire 1 % z [1] $end
$var wire 1 & z [0] $end

$scope module i1 $end
$var wire 1 ' gnd $end
$var wire 1 ( vcc $end
$var wire 1 ) unknown $end
$var tri1 1 * devclrn $end
$var tri1 1 + devpor $end
$var tri1 1 , devoe $end
$var wire 1 - z[0]~output_o $end
$var wire 1 . z[1]~output_o $end
$var wire 1 / z[2]~output_o $end
$var wire 1 0 z[3]~output_o $end
$var wire 1 1 b[0]~input_o $end
$var wire 1 2 a[0]~input_o $end
$var wire 1 3 Add0~1_sumout $end
$var wire 1 4 b[1]~input_o $end
$var wire 1 5 a[1]~input_o $end
$var wire 1 6 Add0~2 $end
$var wire 1 7 Add0~5_sumout $end
$var wire 1 8 b[2]~input_o $end
$var wire 1 9 a[2]~input_o $end
$var wire 1 : Add0~6 $end
$var wire 1 ; Add0~9_sumout $end
$var wire 1 < b[3]~input_o $end
$var wire 1 = a[3]~input_o $end
$var wire 1 > Add0~10 $end
$var wire 1 ? Add0~13_sumout $end
$upscope $end
$upscope $end
$enddefinitions $end
#0
$dumpvars
b0 !
b0 "
0&
0%
0$
0#
0'
1(
x)
1*
1+
1,
0-
0.
0/
00
01
02
03
04
05
06
07
08
09
0:
0;
0<
0=
0>
0?
$end
#10000
b1 !
12
13
1-
1&
#20000
b11 !
b10 !
02
15
17
03
0-
1.
1%
0&
#30000
b11 !
12
13
1-
1&
#40000
b111 !
b101 !
b100 !
02
05
19
1;
07
03
0-
0.
1/
1$
0%
0&
#50000
b101 !
12
13
1-
1&
#60000
b111 !
b110 !
02
15
17
03
0-
1.
1%
0&
#70000
b111 !
12
13
1-
1&
#80000
b1111 !
b1011 !
b1001 !
b1000 !
02
05
09
1=
1?
0;
07
03
0-
0.
0/
10
1#
0$
0%
0&
#90000
b1001 !
12
13
1-
1&
#100000
b1011 !
b1010 !
02
15
17
03
0-
1.
1%
0&
#110000
b1011 !
12
13
1-
1&
#120000
b1111 !
b1101 !
b1100 !
02
05
19
1;
07
03
0-
0.
1/
1$
0%
0&
#130000
b1101 !
12
13
1-
1&
#140000
b1111 !
b1110 !
02
15
17
03
0-
1.
1%
0&
#150000
b1111 !
12
13
1-
1&
#160000
b1 "
b111 !
b11 !
b1 !
b0 !
02
05
09
0=
11
0?
0;
07
0.
0/
00
0#
0$
0%
#170000
b1 !
12
16
03
0-
0&
17
1.
1%
#180000
b11 !
b10 !
02
15
1:
06
07
13
1-
0.
0:
0%
1&
1;
17
1.
1/
1$
1%
0;
0/
0$
#190000
b11 !
12
16
03
0-
1:
0&
07
0.
0%
1;
1/
1$
#200000
b111 !
b101 !
b100 !
02
05
19
1>
0:
06
0;
17
13
1-
1.
0/
0>
0$
1%
1&
1?
1;
07
0.
1/
10
1#
1$
0%
0?
00
0#
#210000
b101 !
12
16
03
0-
0&
17
1.
1%
#220000
b111 !
b110 !
02
15
1:
06
07
13
1-
0.
1>
0:
0%
1&
0;
17
1.
0/
0>
0$
1%
1?
1;
1/
10
1#
1$
0?
00
0#
#230000
b111 !
12
16
03
0-
1:
0&
07
0.
1>
0%
0;
0/
0$
1?
10
1#
#240000
b1111 !
b1011 !
b1001 !
b1000 !
02
05
09
1=
0>
0:
06
0?
1;
17
13
1-
1.
1/
00
0#
1$
1%
1&
1?
0;
07
0.
0/
10
1#
0$
0%
#250000
b1001 !
12
16
03
0-
0&
17
1.
1%
#260000
b1011 !
b1010 !
02
15
1:
06
07
13
1-
0.
0:
0%
1&
1;
17
1.
1/
1$
1%
0;
0/
0$
#270000
b1011 !
12
16
03
0-
1:
0&
07
0.
0%
1;
1/
1$
#280000
b1111 !
b1101 !
b1100 !
02
05
19
1>
0:
06
0;
17
13
1-
1.
0/
0>
0$
1%
1&
0?
1;
07
0.
1/
00
0#
1$
0%
1?
10
1#
#290000
b1101 !
12
16
03
0-
0&
17
1.
1%
#300000
b1111 !
b1110 !
02
15
1:
06
07
13
1-
0.
1>
0:
0%
1&
0;
17
1.
0/
0>
0$
1%
0?
1;
1/
00
0#
1$
1?
10
1#
#310000
b1111 !
12
16
03
0-
1:
0&
07
0.
1>
0%
0;
0/
0$
0?
00
0#
#320000
b11 "
b10 "
b111 !
b11 !
b1 !
b0 !
02
05
09
0=
01
14
06
0>
1?
1;
1/
10
0:
1#
1$
17
0?
00
1.
1%
0#
0;
0/
0$
#330000
b1 !
12
13
1-
1&
#340000
b11 !
b10 !
02
15
1:
07
03
0-
0.
0%
0&
1;
1/
1$
#350000
b11 !
12
13
1-
1&
#360000
b111 !
b101 !
b100 !
02
05
19
1>
0:
0;
17
03
0-
1.
0/
0>
0$
1%
0&
1?
1;
1/
10
1#
1$
0?
00
0#
#370000
b101 !
12
13
1-
1&
#380000
b111 !
b110 !
02
15
1:
07
03
0-
0.
1>
0%
0&
0;
0/
0$
1?
10
1#
#390000
b111 !
12
13
1-
1&
#400000
b1111 !
b1011 !
b1001 !
b1000 !
02
05
09
1=
0>
0:
0?
1;
17
03
0-
1.
1/
00
0#
1$
1%
0&
1?
0;
0/
10
1#
0$
#410000
b1001 !
12
13
1-
1&
#420000
b1011 !
b1010 !
02
15
1:
07
03
0-
0.
0%
0&
1;
1/
1$
#430000
b1011 !
12
13
1-
1&
#440000
b1111 !
b1101 !
b1100 !
02
05
19
1>
0:
0;
17
03
0-
1.
0/
0>
0$
1%
0&
0?
1;
1/
00
0#
1$
1?
10
1#
#450000
b1101 !
12
13
1-
1&
#460000
b1111 !
b1110 !
02
15
1:
07
03
0-
0.
1>
0%
0&
0;
0/
0$
0?
00
0#
#470000
b1111 !
12
13
1-
1&
#480000
b11 "
b111 !
b11 !
b1 !
b0 !
02
05
09
0=
11
0>
0:
1?
1;
17
1.
1/
10
1#
1$
1%
0?
0;
0/
00
0#
0$
#490000
b1 !
12
16
03
0-
1:
0&
07
0.
0%
1;
1/
1$
#500000
b11 !
b10 !
02
15
06
17
13
1-
1.
1%
1&
07
0.
0%
#510000
b11 !
12
16
03
0-
0&
17
1.
1%
#520000
b111 !
b101 !
b100 !
02
05
19
1>
06
0;
07
13
1-
0.
0/
0:
0$
0%
1&
1?
17
1.
10
0>
1#
1%
1;
1/
1$
0?
00
0#
#530000
b101 !
12
16
03
0-
1:
0&
07
0.
1>
0%
0;
0/
0$
1?
10
1#
#540000
b111 !
b110 !
02
15
06
17
13
1-
1.
1%
1&
07
0.
0%
#550000
b111 !
12
16
03
0-
0&
17
1.
1%
#560000
b1111 !
b1011 !
b1001 !
b1000 !
02
05
09
1=
0>
06
0?
1;
07
13
1-
0.
1/
00
0:
0#
1$
0%
1&
1?
17
1.
10
1#
1%
0;
0/
0$
#570000
b1001 !
12
16
03
0-
1:
0&
07
0.
0%
1;
1/
1$
#580000
b1011 !
b1010 !
02
15
06
17
13
1-
1.
1%
1&
07
0.
0%
#590000
b1011 !
12
16
03
0-
0&
17
1.
1%
#600000
b1111 !
b1101 !
b1100 !
02
05
19
1>
06
0;
07
13
1-
0.
0/
0:
0$
0%
1&
0?
17
1.
00
0>
0#
1%
1;
1/
1$
1?
10
1#
#610000
b1101 !
12
16
03
0-
1:
0&
07
0.
1>
0%
0;
0/
0$
0?
00
0#
#620000
b1111 !
b1110 !
02
15
06
17
13
1-
1.
1%
1&
07
0.
0%
#630000
b1111 !
12
16
03
0-
0&
17
1.
1%
#640000
b111 "
b101 "
b100 "
b111 !
b11 !
b1 !
b0 !
02
05
09
0=
01
04
18
0:
06
1?
10
0>
1#
1;
07
0.
1/
1$
0%
0?
00
0#
#650000
b1 !
12
13
1-
1&
#660000
b11 !
b10 !
02
15
17
03
0-
1.
1%
0&
#670000
b11 !
12
13
1-
1&
#680000
b111 !
b101 !
b100 !
02
05
19
1>
0;
07
03
0-
0.
0/
0$
0%
0&
1?
10
1#
#690000
b101 !
12
13
1-
1&
#700000
b111 !
b110 !
02
15
17
03
0-
1.
1%
0&
#710000
b111 !
12
13
1-
1&
#720000
b1111 !
b1011 !
b1001 !
b1000 !
02
05
09
1=
0>
0?
1;
07
03
0-
0.
1/
00
0#
1$
0%
0&
1?
10
1#
#730000
b1001 !
12
13
1-
1&
#740000
b1011 !
b1010 !
02
15
17
03
0-
1.
1%
0&
#750000
b1011 !
12
13
1-
1&
#760000
b1111 !
b1101 !
b1100 !
02
05
19
1>
0;
07
03
0-
0.
0/
0$
0%
0&
0?
00
0#
#770000
b1101 !
12
13
1-
1&
#780000
b1111 !
b1110 !
02
15
17
03
0-
1.
1%
0&
#790000
b1111 !
12
13
1-
1&
#800000
b101 "
b111 !
b11 !
b1 !
b0 !
02
05
09
0=
11
0>
1?
1;
07
0.
1/
10
1#
1$
0%
0?
00
0#
#810000
b1 !
12
16
03
0-
0&
17
1.
1%
#820000
b11 !
b10 !
02
15
1:
06
07
13
1-
0.
1>
0:
0%
1&
0;
17
1.
0/
0>
0$
1%
1?
1;
1/
10
1#
1$
0?
00
0#
#830000
b11 !
12
16
03
0-
1:
0&
07
0.
1>
0%
0;
0/
0$
1?
10
1#
#840000
b111 !
b101 !
b100 !
02
05
19
0:
06
1;
17
13
1-
1.
1/
1$
1%
1&
0;
07
0.
0/
0$
0%
#850000
b101 !
12
16
03
0-
0&
17
1.
1%
#860000
b111 !
b110 !
02
15
1:
06
07
13
1-
0.
0:
0%
1&
1;
17
1.
1/
1$
1%
0;
0/
0$
#870000
b111 !
12
16
03
0-
1:
0&
07
0.
0%
1;
1/
1$
#880000
b1111 !
b1011 !
b1001 !
b1000 !
02
05
09
1=
0:
06
0?
0;
17
13
1-
1.
0/
00
0>
0#
0$
1%
1&
1;
07
0.
1/
1$
0%
1?
10
1#
#890000
b1001 !
12
16
03
0-
0&
17
1.
1%
#900000
b1011 !
b1010 !
02
15
1:
06
07
13
1-
0.
1>
0:
0%
1&
0;
17
1.
0/
0>
0$
1%
0?
1;
1/
00
0#
1$
1?
10
1#
#910000
b1011 !
12
16
03
0-
1:
0&
07
0.
1>
0%
0;
0/
0$
0?
00
0#
#920000
b1111 !
b1101 !
b1100 !
02
05
19
0:
06
1;
17
13
1-
1.
1/
1$
1%
1&
0;
07
0.
0/
0$
0%
#930000
b1101 !
12
16
03
0-
0&
17
1.
1%
#940000
b1111 !
b1110 !
02
15
1:
06
07
13
1-
0.
0:
0%
1&
1;
17
1.
1/
1$
1%
0;
0/
0$
#950000
b1111 !
12
16
03
0-
1:
0&
07
0.
0%
1;
1/
1$
#960000
b111 "
b110 "
b111 !
b11 !
b1 !
b0 !
02
05
09
0=
01
14
06
1?
0;
0/
10
0:
1#
0$
17
1.
0>
1%
1;
1/
1$
0?
00
0#
#970000
b1 !
12
13
1-
1&
#980000
b11 !
b10 !
02
15
1:
07
03
0-
0.
1>
0%
0&
0;
0/
0$
1?
10
1#
#990000
b11 !
12
13
1-
1&
