0018_vhdl18_component_vhdl93/counter4/simulation/qsim/counter.msim.vcd
$comment
	File created using the following command:
		vcd file counter.msim.vcd -direction
$end
$date
	Thu Jul 25 13:19:48 2019
$end
$version
	ModelSim Version 10.5b
$end
$timescale
	1ps
$end

$scope module counter_vhd_vec_tst $end
$var wire 1 ! clk $end
$var wire 1 " q [3] $end
$var wire 1 # q [2] $end
$var wire 1 $ q [1] $end
$var wire 1 % q [0] $end
$var wire 1 & rst $end

$scope module i1 $end
$var wire 1 ' gnd $end
$var wire 1 ( vcc $end
$var wire 1 ) unknown $end
$var wire 1 * devoe $end
$var wire 1 + devclrn $end
$var wire 1 , devpor $end
$var wire 1 - ww_devoe $end
$var wire 1 . ww_devclrn $end
$var wire 1 / ww_devpor $end
$var wire 1 0 ww_clk $end
$var wire 1 1 ww_rst $end
$var wire 1 2 ww_q [3] $end
$var wire 1 3 ww_q [2] $end
$var wire 1 4 ww_q [1] $end
$var wire 1 5 ww_q [0] $end
$var wire 1 6 \q[0]~output_o\ $end
$var wire 1 7 \q[1]~output_o\ $end
$var wire 1 8 \q[2]~output_o\ $end
$var wire 1 9 \q[3]~output_o\ $end
$var wire 1 : \clk~input_o\ $end
$var wire 1 ; \U2|q[0]~3_combout\ $end
$var wire 1 < \rst~input_o\ $end
$var wire 1 = \U2|q[1]~0_combout\ $end
$var wire 1 > \U2|q[2]~1_combout\ $end
$var wire 1 ? \U2|q[3]~2_combout\ $end
$var wire 1 @ \U2|q\ [3] $end
$var wire 1 A \U2|q\ [2] $end
$var wire 1 B \U2|q\ [1] $end
$var wire 1 C \U2|q\ [0] $end
$var wire 1 D \U2|ALT_INV_q\ [3] $end
$var wire 1 E \U2|ALT_INV_q\ [2] $end
$var wire 1 F \U2|ALT_INV_q\ [1] $end
$var wire 1 G \U2|ALT_INV_q\ [0] $end
$upscope $end
$upscope $end
$enddefinitions $end
#0
$dumpvars
0!
1&
0'
1(
x)
1*
1+
1,
1-
1.
1/
00
11
06
07
08
09
0:
1;
1<
0=
0>
0?
02
03
04
05
0@
0A
0B
0C
1D
1E
1F
1G
0"
0#
0$
0%
$end
#25000
1!
10
1:
1C
0G
0;
1=
16
15
1%
#30000
0&
01
0<
0C
1G
1;
0=
06
05
0%
#50000
0!
00
0:
#70000
1&
11
1<
#75000
1!
10
1:
1C
0G
0;
1=
16
15
1%
#100000
0!
00
0:
#125000
1!
10
1:
0C
1B
0F
1G
1;
17
06
14
05
0%
1$
#150000
0!
00
0:
#175000
1!
10
1:
1C
0G
0;
0=
1>
16
15
1%
#200000
0!
00
0:
#225000
1!
10
1:
0C
0B
1A
0E
1F
1G
1;
18
07
06
13
04
05
0%
0$
1#
#250000
0!
00
0:
#275000
1!
10
1:
1C
0G
0;
1=
16
15
1%
#300000
0!
00
0:
#325000
1!
10
1:
0C
1B
0F
1G
1;
17
06
14
05
0%
1$
#350000
0!
00
0:
#375000
1!
10
1:
1C
0G
0;
0=
0>
1?
16
15
1%
#400000
0!
00
0:
#425000
1!
10
1:
0C
0B
0A
1@
0D
1E
1F
1G
1;
19
08
07
06
12
03
04
05
0%
0$
0#
1"
#450000
0!
00
0:
#475000
1!
10
1:
1C
0G
0;
1=
16
15
1%
#500000
0!
00
0:
#525000
1!
10
1:
0C
1B
0F
1G
1;
17
06
14
05
0%
1$
#550000
0!
00
0:
#575000
1!
10
1:
1C
0G
0;
0=
1>
16
15
1%
#600000
0!
00
0:
#625000
1!
10
1:
0C
0B
1A
0E
1F
1G
1;
18
07
06
13
04
05
0%
0$
1#
#650000
0!
00
0:
#675000
1!
10
1:
1C
0G
0;
1=
16
15
1%
#700000
0!
00
0:
#725000
1!
10
1:
0C
1B
0F
1G
1;
17
06
14
05
0%
1$
#750000
0!
00
0:
#775000
1!
10
1:
1C
0G
0;
0=
0>
0?
16
15
1%
#800000
0!
00
0:
#825000
1!
10
1:
0C
0B
0A
0@
1D
1E
1F
1G
1;
09
08
07
06
02
03
04
05
0%
0$
0#
0"
#850000
0!
00
0:
#875000
1!
10
1:
1C
0G
0;
1=
16
15
1%
#900000
0!
00
0:
#925000
1!
10
1:
0C
1B
0F
1G
1;
17
06
14
05
0%
1$
#950000
0!
00
0:
#975000
1!
10
1:
1C
0G
0;
0=
1>
16
15
1%
